{  "response": {
    "status": "ok",
    "userTier": "free",
    "total": 49,
    "startIndex": 1,
    "pageSize": 10,
    "currentPage": 1,
    "pages": 5,
    "orderBy": "newest",
    "results": [
        {
            "id": "item",
            "sectionId": "news",
            "sectionName": "News",
            "webPublicationDate": "2010-09-15T00:00:00+01:00",
            "webTitle": "An Item",
            "webUrl": "http://www.guardian.co.uk/news/blog/2010/sep/15/tony-blair-katie-couric",
            "apiUrl": "http://localhost:8700/content-api/api/news/blog/2010/sep/15/tony-blair-katie-couric"
        },
        {
            "id": "lifeandstyle/2010/sep/14/new-york-marc-jacobs-fashion",
            "sectionId": "lifeandstyle",
            "sectionName": "Life and style",
            "webPublicationDate": "2010-09-14T00:00:00+01:00",
            "webTitle": "Fashion week live blog: 14 September | Kate Carter",
            "webUrl": "http://www.guardian.co.uk/lifeandstyle/2010/sep/14/new-york-marc-jacobs-fashion",
            "apiUrl": "http://localhost:8700/content-api/api/lifeandstyle/2010/sep/14/new-york-marc-jacobs-fashion"
        },
        {
            "id": "politics/blog/2010/sep/14/politics-live-blog-tuesday",
            "sectionId": "politics",
            "sectionName": "Politics",
            "webPublicationDate": "2010-09-14T00:00:00+01:00",
            "webTitle": "Politics live blog  - Tuesday 14 September",
            "webUrl": "http://www.guardian.co.uk/politics/blog/2010/sep/14/politics-live-blog-tuesday",
            "apiUrl": "http://localhost:8700/content-api/api/politics/blog/2010/sep/14/politics-live-blog-tuesday"
        },
        {
            "id": "sport/blog/2010/sep/14/county-cricket-live",
            "sectionId": "sport",
            "sectionName": "Sport",
            "webPublicationDate": "2010-09-14T00:00:00+01:00",
            "webTitle": "County cricket \u2013 as it happened! | Andy Wilson, David Hopps and Vic Mark",
            "webUrl": "http://www.guardian.co.uk/sport/blog/2010/sep/14/county-cricket-live",
            "apiUrl": "http://localhost:8700/content-api/api/sport/blog/2010/sep/14/county-cricket-live"
        },
        {
            "id": "football/2010/sep/14/manchester-united-rangers-live-champions-league",
            "sectionId": "football",
            "sectionName": "Football",
            "webPublicationDate": "2010-09-14T00:00:00+01:00",
            "webTitle": "Manchester United v Rangers - as it happened | Rob Smyth",
            "webUrl": "http://www.guardian.co.uk/football/2010/sep/14/manchester-united-rangers-live-champions-league",
            "apiUrl": "http://localhost:8700/content-api/api/football/2010/sep/14/manchester-united-rangers-live-champions-league"
        },
        {
            "id": "football/2010/sep/14/werder-bremen-tottenham-live-champions-league",
            "sectionId": "football",
            "sectionName": "Football",
            "webPublicationDate": "2010-09-14T00:00:00+01:00",
            "webTitle": "Werder Bremen v Tottenham - as it happened | Paolo Bandini",
            "webUrl": "http://www.guardian.co.uk/football/2010/sep/14/werder-bremen-tottenham-live-champions-league",
            "apiUrl": "http://localhost:8700/content-api/api/football/2010/sep/14/werder-bremen-tottenham-live-champions-league"
        },
        {
            "id": "world/richard-adams-blog/2010/sep/14/tea-party-republican-primaries-new-hampshire-delaware-massachusetts-new-york-liveblog",
            "sectionId": "world",
            "sectionName": "World news",
            "webPublicationDate": "2010-09-14T00:00:00+01:00",
            "webTitle": "New Hampshire, Delaware, New York primaries - as it happened | Richard Adams",
            "webUrl": "http://www.guardian.co.uk/world/richard-adams-blog/2010/sep/14/tea-party-republican-primaries-new-hampshire-delaware-massachusetts-new-york-liveblog",
            "apiUrl": "http://localhost:8700/content-api/api/world/richard-adams-blog/2010/sep/14/tea-party-republican-primaries-new-hampshire-delaware-massachusetts-new-york-liveblog"
        },
        {
            "id": "politics/2010/sep/13/labour-leadership-hustings-live",
            "sectionId": "politics",
            "sectionName": "Politics",
            "webPublicationDate": "2010-09-13T00:00:00+01:00",
            "webTitle": "Labour leadership hustings - as they happened",
            "webUrl": "http://www.guardian.co.uk/politics/2010/sep/13/labour-leadership-hustings-live",
            "apiUrl": "http://localhost:8700/content-api/api/politics/2010/sep/13/labour-leadership-hustings-live"
        },
        {
            "id": "football/2010/sep/13/stoke-city-aston-villa-live",
            "sectionId": "football",
            "sectionName": "Football",
            "webPublicationDate": "2010-09-13T00:00:00+01:00",
            "webTitle": "Stoke City v Aston Villa - as it happened | Simon Burnton",
            "webUrl": "http://www.guardian.co.uk/football/2010/sep/13/stoke-city-aston-villa-live",
            "apiUrl": "http://localhost:8700/content-api/api/football/2010/sep/13/stoke-city-aston-villa-live"
        },
        {
            "id": "sport/2010/aug/29/england-v-pakistan-live-over-by-over-report",
            "sectionId": "sport",
            "sectionName": "Sport",
            "webPublicationDate": "2010-08-29T00:00:00+01:00",
            "webTitle": "England v Pakistan - day four as it happened | Barney Ronay",
            "webUrl": "http://www.guardian.co.uk/sport/2010/aug/29/england-v-pakistan-live-over-by-over-report",
            "apiUrl": "http://localhost:8700/content-api/api/sport/2010/aug/29/england-v-pakistan-live-over-by-over-report"
        }
    ]
}}